{
  "project_info": {
    "project_number": "313217666339",
    "project_id": "townsman-fada7",
    "storage_bucket": "townsman-fada7.appspot.com"
  },
  "client": [
    {
      "client_info": {
        "mobilesdk_app_id": "1:313217666339:android:17eb24f570fa3f8aaf5096",
        "android_client_info": {
          "package_name": "kg.cdt.townsman"
        }
      },
      "oauth_client": [
        {
          "client_id": "313217666339-sg1ddgf1bggg7uhjd4omfhc62qj7ju6n.apps.googleusercontent.com",
          "client_type": 3
        }
      ],
      "api_key": [
        {
          "current_key": "AIzaSyA8BL_7Qt23Rb2hRQhECKE0uaVPLb_DS5Q"
        }
      ],
      "services": {
        "appinvite_service": {
          "other_platform_oauth_client": [
            {
              "client_id": "313217666339-sg1ddgf1bggg7uhjd4omfhc62qj7ju6n.apps.googleusercontent.com",
              "client_type": 3
            }
          ]
        }
      }
    }
  ],
  "configuration_version": "1"
}